More data wrangling and data visualization with the tidyverse – Introduction to Data Analysis in R
…
pivot longer

malaria_facility_count_data <- readRDS("./../../../datasets/malaria_facility_count_data.rds")

malaria_facility_count_data

# A tibble: 3,038 × 10
   location_name data_date  submitted_date Province District `malaria_rdt_0-4`
   <chr>         <date>     <date>         <chr>    <chr>                <int>
 1 Facility 1    2020-08-11 2020-08-12     North    Spring                  11
 2 Facility 2    2020-08-11 2020-08-12     North    Bolo                    11
 3 Facility 3    2020-08-11 2020-08-12     North    Dingo                    8
 4 Facility 4    2020-08-11 2020-08-12     North    Bolo                    16
 5 Facility 5    2020-08-11 2020-08-12     North    Bolo                     9
 6 Facility 6    2020-08-11 2020-08-12     North    Dingo                    3
 7 Facility 6    2020-08-10 2020-08-12     North    Dingo                    4
 8 Facility 5    2020-08-10 2020-08-12     North    Bolo                    15
 9 Facility 5    2020-08-09 2020-08-12     North    Bolo                    11
10 Facility 5    2020-08-08 2020-08-12     North    Bolo                    19
# ℹ 3,028 more rows
# ℹ 4 more variables: `malaria_rdt_5-14` <int>, malaria_rdt_15 <int>,
#   malaria_tot <int>, newid <int>

# provide column with a tidyselect helper function
malaria_facility_count_data %>% 
  pivot_longer(
    cols = starts_with("malaria_")
    )

# A tibble: 12,152 × 8
   location_name data_date  submitted_date Province District newid name    value
   <chr>         <date>     <date>         <chr>    <chr>    <int> <chr>   <int>
 1 Facility 1    2020-08-11 2020-08-12     North    Spring       1 malari…    11
 2 Facility 1    2020-08-11 2020-08-12     North    Spring       1 malari…    12
 3 Facility 1    2020-08-11 2020-08-12     North    Spring       1 malari…    23
 4 Facility 1    2020-08-11 2020-08-12     North    Spring       1 malari…    46
 5 Facility 2    2020-08-11 2020-08-12     North    Bolo         2 malari…    11
 6 Facility 2    2020-08-11 2020-08-12     North    Bolo         2 malari…    10
 7 Facility 2    2020-08-11 2020-08-12     North    Bolo         2 malari…     5
 8 Facility 2    2020-08-11 2020-08-12     North    Bolo         2 malari…    26
 9 Facility 3    2020-08-11 2020-08-12     North    Dingo        3 malari…     8
10 Facility 3    2020-08-11 2020-08-12     North    Dingo        3 malari…     5
# ℹ 12,142 more rows
…
Joining

library(readxl)
linelist_cleaned <- readRDS("./../../../datasets/linelist_cleaned.rds")
facilities <- read_excel("./../../../datasets/facilities.xlsx")

linelist_cleaned

# A tibble: 5,888 × 30
   facility_id case_id generation date_infection date_onset date_hospitalisation
         <int> <chr>        <dbl> <date>         <date>     <date>              
 1           4 5fe599           4 2014-05-08     2014-05-13 2014-05-15          
 2           3 8689b7           4 NA             2014-05-13 2014-05-14          
 3           6 11f8ea           2 NA             2014-05-16 2014-05-18          
 4           5 b8812a           3 2014-05-04     2014-05-18 2014-05-20          
 5           2 893f25           3 2014-05-18     2014-05-21 2014-05-22          
 6           5 be99c8           3 2014-05-03     2014-05-22 2014-05-23          
 7           3 07e3e8           4 2014-05-22     2014-05-27 2014-05-29          
 8           3 369449           4 2014-05-28     2014-06-02 2014-06-03          
 9           3 f393b4           4 NA             2014-06-05 2014-06-06          
10           3 1389ca           4 NA             2014-06-05 2014-06-07          
# ℹ 5,878 more rows
# ℹ 24 more variables: date_outcome <date>, outcome <chr>, gender <chr>,
#   age <dbl>, age_unit <chr>, age_years <dbl>, age_cat <fct>, age_cat5 <fct>,
#   lon <dbl>, lat <dbl>, infector <chr>, source <chr>, wt_kg <dbl>,
#   ht_cm <dbl>, ct_blood <dbl>, fever <chr>, chills <chr>, cough <chr>,
#   aches <chr>, vomit <chr>, temp <dbl>, time_admission <chr>, bmi <dbl>,
#   days_onset_hosp <dbl>
…
