Introduction to Data Analysis in R - Intro to data wrangling and visualization with the
…
Tidyverse

library(tidyverse)

Import raw data

library(readxl)
linelist_raw <- read_excel("./../../../datasets/linelist_raw.xlsx")
facilities <- read_excel("./../../../datasets/facilities.xlsx")

View the data

linelist_raw

# A tibble: 6,611 × 28
   case_id generation `infection date`    `date onset` `hosp date`        
   <chr>        <dbl> <dttm>              <chr>        <dttm>             
 1 5fe599           4 2014-05-08 00:00:00 2014-05-13   2014-05-15 00:00:00
 2 8689b7           4 NA                  2014-05-13   2014-05-14 00:00:00
 3 11f8ea           2 NA                  2014-05-16   2014-05-18 00:00:00
 4 b8812a           3 2014-05-04 00:00:00 2014-05-18   2014-05-20 00:00:00
 5 893f25           3 2014-05-18 00:00:00 2014-05-21   2014-05-22 00:00:00
 6 be99c8           3 2014-05-03 00:00:00 2014-05-22   2014-05-23 00:00:00
 7 07e3e8           4 2014-05-22 00:00:00 2014-05-27   2014-05-29 00:00:00
 8 369449           4 2014-05-28 00:00:00 2014-06-02   2014-06-03 00:00:00
 9 f393b4           4 NA                  2014-06-05   2014-06-06 00:00:00
10 1389ca           4 NA                  2014-06-05   2014-06-07 00:00:00
# ℹ 6,601 more rows
# ℹ 23 more variables: date_of_outcome <dttm>, outcome <chr>, gender <chr>,
#   facility_id <dbl>, lon <dbl>, lat <dbl>, infector <chr>, source <chr>,
#   age <chr>, age_unit <chr>, row_num <dbl>, wt_kg <dbl>, ht_cm <dbl>,
#   ct_blood <dbl>, fever <chr>, chills <chr>, cough <chr>, aches <chr>,
#   vomit <chr>, temp <dbl>, time_admission <chr>, merged_header <chr>,
#   ...28 <chr>
…
    # standardize column name syntax
    janitor::clean_names() %>% 
    
    # manually re-name columns
           # NEW name             # OLD name
    rename(date_infection       = infection_date,
           date_hospitalisation = hosp_date,
           date_outcome         = date_of_outcome)

Selecting some columns

linelist %>% 
  select(date_infection, date_hospitalisation, date_outcome)

# A tibble: 6,611 × 3
   date_infection      date_hospitalisation date_outcome       
   <dttm>              <dttm>               <dttm>             
 1 2014-05-08 00:00:00 2014-05-15 00:00:00  NA                 
 2 NA                  2014-05-14 00:00:00  2014-05-18 00:00:00
 3 NA                  2014-05-18 00:00:00  2014-05-30 00:00:00
 4 2014-05-04 00:00:00 2014-05-20 00:00:00  NA                 
 5 2014-05-18 00:00:00 2014-05-22 00:00:00  2014-05-29 00:00:00
 6 2014-05-03 00:00:00 2014-05-23 00:00:00  2014-05-24 00:00:00
 7 2014-05-22 00:00:00 2014-05-29 00:00:00  2014-06-01 00:00:00
 8 2014-05-28 00:00:00 2014-06-03 00:00:00  2014-06-07 00:00:00
 9 NA                  2014-06-06 00:00:00  2014-06-18 00:00:00
10 NA                  2014-06-07 00:00:00  2014-06-09 00:00:00
# ℹ 6,601 more rows
…
Put their names in the select() command, with no quotation marks. They will appear in the data frame in the order you provide. Note that if you include a column that does not exist, R will return an error (see use of any_of() below if you want no error in this situation).

# linelist dataset is piped through select() command, and names() prints just the column names
linelist %>% 
  select(case_id, date_onset, date_hospitalisation, fever) %>% 
  names()  # display the column names

[1] "case_id"              "date_onset"           "date_hospitalisation"
[4] "fever"               

# Also, by using the 'minus' sign (-) you can deselect columns
linelist %>% 
  select(-x28)

# A tibble: 6,611 × 27
   case_id generation date_infection      date_onset date_hospitalisation
   <chr>        <dbl> <dttm>              <chr>      <dttm>              
 1 5fe599           4 2014-05-08 00:00:00 2014-05-13 2014-05-15 00:00:00 
 2 8689b7           4 NA                  2014-05-13 2014-05-14 00:00:00 
 3 11f8ea           2 NA                  2014-05-16 2014-05-18 00:00:00 
 4 b8812a           3 2014-05-04 00:00:00 2014-05-18 2014-05-20 00:00:00 
 5 893f25           3 2014-05-18 00:00:00 2014-05-21 2014-05-22 00:00:00 
 6 be99c8           3 2014-05-03 00:00:00 2014-05-22 2014-05-23 00:00:00 
 7 07e3e8           4 2014-05-22 00:00:00 2014-05-27 2014-05-29 00:00:00 
 8 369449           4 2014-05-28 00:00:00 2014-06-02 2014-06-03 00:00:00 
 9 f393b4           4 NA                  2014-06-05 2014-06-06 00:00:00 
10 1389ca           4 NA                  2014-06-05 2014-06-07 00:00:00 
# ℹ 6,601 more rows
# ℹ 22 more variables: date_outcome <dttm>, outcome <chr>, gender <chr>,
#   facility_id <dbl>, lon <dbl>, lat <dbl>, infector <chr>, source <chr>,
#   age <chr>, age_unit <chr>, row_num <dbl>, wt_kg <dbl>, ht_cm <dbl>,
#   ct_blood <dbl>, fever <chr>, chills <chr>, cough <chr>, aches <chr>,
#   vomit <chr>, temp <dbl>, time_admission <chr>, merged_header <chr>
…
Column creation and transformation

We recommend using the dplyr function mutate() to add a new column, or to modify an existing one.

linelist <- linelist %>% 
  mutate(bmi = wt_kg / (ht_cm/100)^2)

Transform data type

# age is stored as character
linelist %>% 
  select(age)

# A tibble: 6,608 × 1
   age  
   <chr>
 1 2    
 2 3    
 3 56   
 4 18   
 5 3    
 6 16   
 7 16   
 8 0    
 9 61   
10 27   
# ℹ 6,598 more rows

# use mutate to change
linelist <- linelist %>% 
  mutate(age = as.numeric(age),
         date_infection = ymd(date_infection))

Filter rows

linelist_female <- linelist %>% 
  filter(gender == "f")   # keep only rows where gender is equal to "f"

linelist_female

# A tibble: 3,139 × 26
   case_id generation date_infection date_onset date_hospitalisation
   <chr>        <dbl> <date>         <chr>      <dttm>              
 1 8689b7           4 NA             2014-05-13 2014-05-14 00:00:00 
 2 b8812a           3 2014-05-04     2014-05-18 2014-05-20 00:00:00 
 3 be99c8           3 2014-05-03     2014-05-22 2014-05-23 00:00:00 
 4 07e3e8           4 2014-05-22     2014-05-27 2014-05-29 00:00:00 
 5 369449           4 2014-05-28     2014-06-02 2014-06-03 00:00:00 
 6 1389ca           4 NA             2014-06-05 2014-06-07 00:00:00 
 7 2eaa9a           5 2014-06-07     2014-06-17 2014-06-17 00:00:00 
 8 bbfa93           6 2014-06-09     2014-06-18 2014-06-20 00:00:00 
 9 f50e8a          10 NA             2014-06-22 2014-06-23 00:00:00 
10 3a7673           8 NA             2014-06-23 2014-06-24 00:00:00 
# ℹ 3,129 more rows
# ℹ 21 more variables: date_outcome <dttm>, outcome <chr>, gender <chr>,
#   facility_id <dbl>, lon <dbl>, lat <dbl>, infector <chr>, source <chr>,
#   age <dbl>, age_unit <chr>, wt_kg <dbl>, ht_cm <dbl>, ct_blood <dbl>,
#   fever <chr>, chills <chr>, cough <chr>, aches <chr>, vomit <chr>,
#   temp <dbl>, time_admission <chr>, bmi <dbl>
…
